{
  "name": "ptt_server_signal",
  "version": "0.0.0",
  "dependencies": {
    "accepts": {
      "version": "1.3.3",
      "from": "accepts@>=1.3.3 <1.4.0",
      "resolved": "https://registry.npmjs.org/accepts/-/accepts-1.3.3.tgz"
    },
    "after": {
      "version": "0.8.2",
      "from": "after@0.8.2",
      "resolved": "https://registry.npmjs.org/after/-/after-0.8.2.tgz"
    },
    "ajv": {
      "version": "4.11.5",
      "from": "ajv@>=4.9.1 <5.0.0",
      "resolved": "https://registry.npmjs.org/ajv/-/ajv-4.11.5.tgz"
    },
    "apn": {
      "version": "2.1.4",
      "from": "apn@>=2.0.0 <3.0.0",
      "resolved": "https://registry.npmjs.org/apn/-/apn-2.1.4.tgz",
      "dependencies": {
        "debug": {
          "version": "2.6.3",
          "from": "debug@>=2.6.0 <3.0.0",
          "resolved": "https://registry.npmjs.org/debug/-/debug-2.6.3.tgz"
        }
      }
    },
    "append-field": {
      "version": "0.1.0",
      "from": "append-field@>=0.1.0 <0.2.0",
      "resolved": "https://registry.npmjs.org/append-field/-/append-field-0.1.0.tgz"
    },
    "archiver": {
      "version": "0.15.0",
      "from": "archiver@0.15.0",
      "resolved": "https://registry.npmjs.org/archiver/-/archiver-0.15.0.tgz",
      "dependencies": {
        "lodash": {
          "version": "3.10.1",
          "from": "lodash@>=3.10.0 <3.11.0",
          "resolved": "https://registry.npmjs.org/lodash/-/lodash-3.10.1.tgz"
        }
      }
    },
    "arguments-extended": {
      "version": "0.0.3",
      "from": "arguments-extended@>=0.0.3 <0.1.0",
      "resolved": "https://registry.npmjs.org/arguments-extended/-/arguments-extended-0.0.3.tgz"
    },
    "array-extended": {
      "version": "0.0.11",
      "from": "array-extended@>=0.0.4 <0.1.0",
      "resolved": "https://registry.npmjs.org/array-extended/-/array-extended-0.0.11.tgz"
    },
    "array-flatten": {
      "version": "1.1.1",
      "from": "array-flatten@1.1.1",
      "resolved": "https://registry.npmjs.org/array-flatten/-/array-flatten-1.1.1.tgz"
    },
    "arraybuffer.slice": {
      "version": "0.0.6",
      "from": "arraybuffer.slice@0.0.6",
      "resolved": "https://registry.npmjs.org/arraybuffer.slice/-/arraybuffer.slice-0.0.6.tgz"
    },
    "asap": {
      "version": "2.0.5",
      "from": "asap@>=2.0.3 <2.1.0",
      "resolved": "https://registry.npmjs.org/asap/-/asap-2.0.5.tgz"
    },
    "asn1": {
      "version": "0.2.3",
      "from": "asn1@>=0.2.3 <0.3.0",
      "resolved": "https://registry.npmjs.org/asn1/-/asn1-0.2.3.tgz"
    },
    "assert-plus": {
      "version": "1.0.0",
      "from": "assert-plus@>=1.0.0 <2.0.0",
      "resolved": "https://registry.npmjs.org/assert-plus/-/assert-plus-1.0.0.tgz"
    },
    "async": {
      "version": "1.4.2",
      "from": "async@>=1.4.2 <1.5.0",
      "resolved": "https://registry.npmjs.org/async/-/async-1.4.2.tgz"
    },
    "asynckit": {
      "version": "0.4.0",
      "from": "asynckit@>=0.4.0 <0.5.0",
      "resolved": "https://registry.npmjs.org/asynckit/-/asynckit-0.4.0.tgz"
    },
    "aws-sign2": {
      "version": "0.6.0",
      "from": "aws-sign2@>=0.6.0 <0.7.0",
      "resolved": "https://registry.npmjs.org/aws-sign2/-/aws-sign2-0.6.0.tgz"
    },
    "aws4": {
      "version": "1.6.0",
      "from": "aws4@>=1.2.1 <2.0.0",
      "resolved": "https://registry.npmjs.org/aws4/-/aws4-1.6.0.tgz"
    },
    "backo2": {
      "version": "1.0.2",
      "from": "backo2@1.0.2",
      "resolved": "https://registry.npmjs.org/backo2/-/backo2-1.0.2.tgz"
    },
    "backoff": {
      "version": "2.3.0",
      "from": "backoff@>=2.3.0 <2.4.0",
      "resolved": "https://registry.npmjs.org/backoff/-/backoff-2.3.0.tgz"
    },
    "balanced-match": {
      "version": "0.4.2",
      "from": "balanced-match@>=0.4.1 <0.5.0",
      "resolved": "https://registry.npmjs.org/balanced-match/-/balanced-match-0.4.2.tgz"
    },
    "base64-arraybuffer": {
      "version": "0.1.5",
      "from": "base64-arraybuffer@0.1.5",
      "resolved": "https://registry.npmjs.org/base64-arraybuffer/-/base64-arraybuffer-0.1.5.tgz"
    },
    "base64id": {
      "version": "1.0.0",
      "from": "base64id@1.0.0",
      "resolved": "https://registry.npmjs.org/base64id/-/base64id-1.0.0.tgz"
    },
    "base64url": {
      "version": "2.0.0",
      "from": "base64url@>=2.0.0 <3.0.0",
      "resolved": "https://registry.npmjs.org/base64url/-/base64url-2.0.0.tgz"
    },
    "basic-auth": {
      "version": "1.0.4",
      "from": "basic-auth@>=1.0.3 <1.1.0",
      "resolved": "https://registry.npmjs.org/basic-auth/-/basic-auth-1.0.4.tgz"
    },
    "bcrypt-pbkdf": {
      "version": "1.0.1",
      "from": "bcrypt-pbkdf@>=1.0.0 <2.0.0",
      "resolved": "https://registry.npmjs.org/bcrypt-pbkdf/-/bcrypt-pbkdf-1.0.1.tgz",
      "optional": true
    },
    "better-assert": {
      "version": "1.0.2",
      "from": "better-assert@>=1.0.0 <1.1.0",
      "resolved": "https://registry.npmjs.org/better-assert/-/better-assert-1.0.2.tgz"
    },
    "binary": {
      "version": "0.3.0",
      "from": "binary@>=0.3.0 <0.4.0",
      "resolved": "https://registry.npmjs.org/binary/-/binary-0.3.0.tgz"
    },
    "bl": {
      "version": "1.2.0",
      "from": "bl@>=1.0.0 <2.0.0",
      "resolved": "https://registry.npmjs.org/bl/-/bl-1.2.0.tgz",
      "dependencies": {
        "isarray": {
          "version": "1.0.0",
          "from": "isarray@>=1.0.0 <1.1.0",
          "resolved": "https://registry.npmjs.org/isarray/-/isarray-1.0.0.tgz"
        },
        "readable-stream": {
          "version": "2.2.6",
          "from": "readable-stream@>=2.0.5 <3.0.0",
          "resolved": "https://registry.npmjs.org/readable-stream/-/readable-stream-2.2.6.tgz"
        }
      }
    },
    "blob": {
      "version": "0.0.4",
      "from": "blob@0.0.4",
      "resolved": "https://registry.npmjs.org/blob/-/blob-0.0.4.tgz"
    },
    "blowfish-security-lib": {
      "version": "1.0.1",
      "from": "blowfish-security-lib@>=1.0.1 <2.0.0",
      "resolved": "https://registry.npmjs.org/blowfish-security-lib/-/blowfish-security-lib-1.0.1.tgz"
    },
    "bluebird": {
      "version": "3.5.0",
      "from": "bluebird@>=3.4.7 <4.0.0",
      "resolved": "https://registry.npmjs.org/bluebird/-/bluebird-3.5.0.tgz"
    },
    "body-parser": {
      "version": "1.13.3",
      "from": "body-parser@>=1.13.2 <1.14.0",
      "resolved": "https://registry.npmjs.org/body-parser/-/body-parser-1.13.3.tgz"
    },
    "boom": {
      "version": "2.10.1",
      "from": "boom@>=2.0.0 <3.0.0",
      "resolved": "https://registry.npmjs.org/boom/-/boom-2.10.1.tgz"
    },
    "brace-expansion": {
      "version": "1.1.6",
      "from": "brace-expansion@>=1.0.0 <2.0.0",
      "resolved": "https://registry.npmjs.org/brace-expansion/-/brace-expansion-1.1.6.tgz"
    },
    "bson": {
      "version": "0.4.23",
      "from": "bson@>=0.4.20 <0.5.0",
      "resolved": "https://registry.npmjs.org/bson/-/bson-0.4.23.tgz"
    },
    "buffer-crc32": {
      "version": "0.2.13",
      "from": "buffer-crc32@>=0.2.1 <0.3.0",
      "resolved": "https://registry.npmjs.org/buffer-crc32/-/buffer-crc32-0.2.13.tgz"
    },
    "buffer-equal-constant-time": {
      "version": "1.0.1",
      "from": "buffer-equal-constant-time@1.0.1",
      "resolved": "https://registry.npmjs.org/buffer-equal-constant-time/-/buffer-equal-constant-time-1.0.1.tgz"
    },
    "buffer-shims": {
      "version": "1.0.0",
      "from": "buffer-shims@>=1.0.0 <2.0.0",
      "resolved": "https://registry.npmjs.org/buffer-shims/-/buffer-shims-1.0.0.tgz"
    },
    "buffers": {
      "version": "0.1.1",
      "from": "buffers@>=0.1.1 <0.2.0",
      "resolved": "https://registry.npmjs.org/buffers/-/buffers-0.1.1.tgz"
    },
    "busboy": {
      "version": "0.2.14",
      "from": "busboy@>=0.2.11 <0.3.0",
      "resolved": "https://registry.npmjs.org/busboy/-/busboy-0.2.14.tgz",
      "dependencies": {
        "readable-stream": {
          "version": "1.1.14",
          "from": "readable-stream@>=1.1.0 <1.2.0",
          "resolved": "https://registry.npmjs.org/readable-stream/-/readable-stream-1.1.14.tgz"
        }
      }
    },
    "bytes": {
      "version": "2.1.0",
      "from": "bytes@2.1.0",
      "resolved": "https://registry.npmjs.org/bytes/-/bytes-2.1.0.tgz"
    },
    "callsite": {
      "version": "1.0.0",
      "from": "callsite@1.0.0",
      "resolved": "https://registry.npmjs.org/callsite/-/callsite-1.0.0.tgz"
    },
    "caseless": {
      "version": "0.12.0",
      "from": "caseless@>=0.12.0 <0.13.0",
      "resolved": "https://registry.npmjs.org/caseless/-/caseless-0.12.0.tgz"
    },
    "chainsaw": {
      "version": "0.1.0",
      "from": "chainsaw@>=0.1.0 <0.2.0",
      "resolved": "https://registry.npmjs.org/chainsaw/-/chainsaw-0.1.0.tgz"
    },
    "co": {
      "version": "4.6.0",
      "from": "co@>=4.6.0 <5.0.0",
      "resolved": "https://registry.npmjs.org/co/-/co-4.6.0.tgz"
    },
    "co-request": {
      "version": "1.0.0",
      "from": "co-request@>=1.0.0 <2.0.0",
      "resolved": "https://registry.npmjs.org/co-request/-/co-request-1.0.0.tgz"
    },
    "combined-stream": {
      "version": "1.0.5",
      "from": "combined-stream@>=1.0.5 <1.1.0",
      "resolved": "https://registry.npmjs.org/combined-stream/-/combined-stream-1.0.5.tgz"
    },
    "commander": {
      "version": "2.1.0",
      "from": "commander@>=2.1.0 <2.2.0",
      "resolved": "https://registry.npmjs.org/commander/-/commander-2.1.0.tgz"
    },
    "component-bind": {
      "version": "1.0.0",
      "from": "component-bind@1.0.0",
      "resolved": "https://registry.npmjs.org/component-bind/-/component-bind-1.0.0.tgz"
    },
    "component-emitter": {
      "version": "1.1.2",
      "from": "component-emitter@1.1.2",
      "resolved": "https://registry.npmjs.org/component-emitter/-/component-emitter-1.1.2.tgz"
    },
    "component-inherit": {
      "version": "0.0.3",
      "from": "component-inherit@0.0.3",
      "resolved": "https://registry.npmjs.org/component-inherit/-/component-inherit-0.0.3.tgz"
    },
    "compress-commons": {
      "version": "0.2.9",
      "from": "compress-commons@>=0.2.0 <0.3.0",
      "resolved": "https://registry.npmjs.org/compress-commons/-/compress-commons-0.2.9.tgz"
    },
    "compressible": {
      "version": "2.0.10",
      "from": "compressible@>=2.0.8 <2.1.0",
      "resolved": "https://registry.npmjs.org/compressible/-/compressible-2.0.10.tgz"
    },
    "compression": {
      "version": "1.6.2",
      "from": "compression@>=1.6.1 <2.0.0",
      "resolved": "https://registry.npmjs.org/compression/-/compression-1.6.2.tgz",
      "dependencies": {
        "bytes": {
          "version": "2.3.0",
          "from": "bytes@2.3.0",
          "resolved": "https://registry.npmjs.org/bytes/-/bytes-2.3.0.tgz"
        }
      }
    },
    "concat-map": {
      "version": "0.0.1",
      "from": "concat-map@0.0.1",
      "resolved": "https://registry.npmjs.org/concat-map/-/concat-map-0.0.1.tgz"
    },
    "concat-stream": {
      "version": "1.6.0",
      "from": "concat-stream@>=1.5.0 <2.0.0",
      "resolved": "https://registry.npmjs.org/concat-stream/-/concat-stream-1.6.0.tgz",
      "dependencies": {
        "isarray": {
          "version": "1.0.0",
          "from": "isarray@>=1.0.0 <1.1.0",
          "resolved": "https://registry.npmjs.org/isarray/-/isarray-1.0.0.tgz"
        },
        "readable-stream": {
          "version": "2.2.6",
          "from": "readable-stream@>=2.2.2 <3.0.0",
          "resolved": "https://registry.npmjs.org/readable-stream/-/readable-stream-2.2.6.tgz"
        }
      }
    },
    "connect-flash": {
      "version": "0.1.1",
      "from": "connect-flash@>=0.1.1 <0.2.0",
      "resolved": "https://registry.npmjs.org/connect-flash/-/connect-flash-0.1.1.tgz"
    },
    "connect-mongo": {
      "version": "0.8.2",
      "from": "connect-mongo@>=0.8.2 <0.9.0",
      "resolved": "https://registry.npmjs.org/connect-mongo/-/connect-mongo-0.8.2.tgz"
    },
    "content-disposition": {
      "version": "0.5.1",
      "from": "content-disposition@0.5.1",
      "resolved": "https://registry.npmjs.org/content-disposition/-/content-disposition-0.5.1.tgz"
    },
    "content-type": {
      "version": "1.0.2",
      "from": "content-type@>=1.0.1 <1.1.0",
      "resolved": "https://registry.npmjs.org/content-type/-/content-type-1.0.2.tgz"
    },
    "cookie": {
      "version": "0.1.3",
      "from": "cookie@0.1.3",
      "resolved": "https://registry.npmjs.org/cookie/-/cookie-0.1.3.tgz"
    },
    "cookie-parser": {
      "version": "1.3.5",
      "from": "cookie-parser@>=1.3.5 <1.4.0",
      "resolved": "https://registry.npmjs.org/cookie-parser/-/cookie-parser-1.3.5.tgz"
    },
    "cookie-signature": {
      "version": "1.0.6",
      "from": "cookie-signature@1.0.6",
      "resolved": "https://registry.npmjs.org/cookie-signature/-/cookie-signature-1.0.6.tgz"
    },
    "core-js": {
      "version": "2.3.0",
      "from": "core-js@>=2.3.0 <2.4.0",
      "resolved": "https://registry.npmjs.org/core-js/-/core-js-2.3.0.tgz"
    },
    "core-util-is": {
      "version": "1.0.2",
      "from": "core-util-is@1.0.2",
      "resolved": "https://registry.npmjs.org/core-util-is/-/core-util-is-1.0.2.tgz"
    },
    "crc": {
      "version": "3.4.4",
      "from": "crc@3.4.4",
      "resolved": "https://registry.npmjs.org/crc/-/crc-3.4.4.tgz"
    },
    "crc32-stream": {
      "version": "0.3.4",
      "from": "crc32-stream@>=0.3.1 <0.4.0",
      "resolved": "https://registry.npmjs.org/crc32-stream/-/crc32-stream-0.3.4.tgz"
    },
    "cron-parser": {
      "version": "1.1.0",
      "from": "cron-parser@1.1.0",
      "resolved": "https://registry.npmjs.org/cron-parser/-/cron-parser-1.1.0.tgz"
    },
    "cryptiles": {
      "version": "2.0.5",
      "from": "cryptiles@>=2.0.0 <3.0.0",
      "resolved": "https://registry.npmjs.org/cryptiles/-/cryptiles-2.0.5.tgz"
    },
    "dashdash": {
      "version": "1.14.1",
      "from": "dashdash@>=1.12.0 <2.0.0",
      "resolved": "https://registry.npmjs.org/dashdash/-/dashdash-1.14.1.tgz"
    },
    "date-extended": {
      "version": "0.0.6",
      "from": "date-extended@>=0.0.3 <0.1.0",
      "resolved": "https://registry.npmjs.org/date-extended/-/date-extended-0.0.6.tgz"
    },
    "debug": {
      "version": "2.2.0",
      "from": "debug@>=2.2.0 <2.3.0",
      "resolved": "https://registry.npmjs.org/debug/-/debug-2.2.0.tgz",
      "dependencies": {
        "ms": {
          "version": "0.7.1",
          "from": "ms@0.7.1",
          "resolved": "https://registry.npmjs.org/ms/-/ms-0.7.1.tgz"
        }
      }
    },
    "declare.js": {
      "version": "0.0.8",
      "from": "declare.js@>=0.0.4 <0.1.0",
      "resolved": "https://registry.npmjs.org/declare.js/-/declare.js-0.0.8.tgz"
    },
    "delayed-stream": {
      "version": "1.0.0",
      "from": "delayed-stream@>=1.0.0 <1.1.0",
      "resolved": "https://registry.npmjs.org/delayed-stream/-/delayed-stream-1.0.0.tgz"
    },
    "depd": {
      "version": "1.0.1",
      "from": "depd@>=1.0.1 <1.1.0",
      "resolved": "https://registry.npmjs.org/depd/-/depd-1.0.1.tgz"
    },
    "destroy": {
      "version": "1.0.4",
      "from": "destroy@>=1.0.4 <1.1.0",
      "resolved": "https://registry.npmjs.org/destroy/-/destroy-1.0.4.tgz"
    },
    "dicer": {
      "version": "0.2.5",
      "from": "dicer@0.2.5",
      "resolved": "https://registry.npmjs.org/dicer/-/dicer-0.2.5.tgz",
      "dependencies": {
        "readable-stream": {
          "version": "1.1.14",
          "from": "readable-stream@>=1.1.0 <1.2.0",
          "resolved": "https://registry.npmjs.org/readable-stream/-/readable-stream-1.1.14.tgz"
        }
      }
    },
    "ecc-jsbn": {
      "version": "0.1.1",
      "from": "ecc-jsbn@>=0.1.1 <0.2.0",
      "resolved": "https://registry.npmjs.org/ecc-jsbn/-/ecc-jsbn-0.1.1.tgz",
      "optional": true
    },
    "ecdsa-sig-formatter": {
      "version": "1.0.9",
      "from": "ecdsa-sig-formatter@1.0.9",
      "resolved": "https://registry.npmjs.org/ecdsa-sig-formatter/-/ecdsa-sig-formatter-1.0.9.tgz"
    },
    "ee-first": {
      "version": "1.1.1",
      "from": "ee-first@1.1.1",
      "resolved": "https://registry.npmjs.org/ee-first/-/ee-first-1.1.1.tgz"
    },
    "ejs": {
      "version": "2.3.4",
      "from": "ejs@>=2.3.3 <2.4.0",
      "resolved": "https://registry.npmjs.org/ejs/-/ejs-2.3.4.tgz"
    },
    "end-of-stream": {
      "version": "1.4.0",
      "from": "end-of-stream@>=1.0.0 <2.0.0",
      "resolved": "https://registry.npmjs.org/end-of-stream/-/end-of-stream-1.4.0.tgz"
    },
    "engine.io": {
      "version": "1.8.3",
      "from": "engine.io@1.8.3",
      "resolved": "https://registry.npmjs.org/engine.io/-/engine.io-1.8.3.tgz",
      "dependencies": {
        "cookie": {
          "version": "0.3.1",
          "from": "cookie@0.3.1",
          "resolved": "https://registry.npmjs.org/cookie/-/cookie-0.3.1.tgz"
        },
        "debug": {
          "version": "2.3.3",
          "from": "debug@2.3.3",
          "resolved": "https://registry.npmjs.org/debug/-/debug-2.3.3.tgz"
        },
        "ws": {
          "version": "1.1.2",
          "from": "ws@1.1.2",
          "resolved": "https://registry.npmjs.org/ws/-/ws-1.1.2.tgz"
        }
      }
    },
    "engine.io-client": {
      "version": "1.8.3",
      "from": "engine.io-client@1.8.3",
      "resolved": "https://registry.npmjs.org/engine.io-client/-/engine.io-client-1.8.3.tgz",
      "dependencies": {
        "component-emitter": {
          "version": "1.2.1",
          "from": "component-emitter@1.2.1",
          "resolved": "https://registry.npmjs.org/component-emitter/-/component-emitter-1.2.1.tgz"
        },
        "debug": {
          "version": "2.3.3",
          "from": "debug@2.3.3",
          "resolved": "https://registry.npmjs.org/debug/-/debug-2.3.3.tgz"
        },
        "ws": {
          "version": "1.1.2",
          "from": "ws@1.1.2",
          "resolved": "https://registry.npmjs.org/ws/-/ws-1.1.2.tgz"
        }
      }
    },
    "engine.io-parser": {
      "version": "1.3.2",
      "from": "engine.io-parser@1.3.2",
      "resolved": "https://registry.npmjs.org/engine.io-parser/-/engine.io-parser-1.3.2.tgz"
    },
    "error-tojson": {
      "version": "0.0.1",
      "from": "error-tojson@0.0.1",
      "resolved": "https://registry.npmjs.org/error-tojson/-/error-tojson-0.0.1.tgz"
    },
    "es6-promise": {
      "version": "2.1.1",
      "from": "es6-promise@2.1.1",
      "resolved": "https://registry.npmjs.org/es6-promise/-/es6-promise-2.1.1.tgz"
    },
    "escape-html": {
      "version": "1.0.3",
      "from": "escape-html@>=1.0.3 <1.1.0",
      "resolved": "https://registry.npmjs.org/escape-html/-/escape-html-1.0.3.tgz"
    },
    "etag": {
      "version": "1.7.0",
      "from": "etag@>=1.7.0 <1.8.0",
      "resolved": "https://registry.npmjs.org/etag/-/etag-1.7.0.tgz"
    },
    "eventsource": {
      "version": "0.1.6",
      "from": "eventsource@>=0.1.6 <0.2.0",
      "resolved": "https://registry.npmjs.org/eventsource/-/eventsource-0.1.6.tgz"
    },
    "exceljs": {
      "version": "0.2.46",
      "from": "exceljs@>=0.2.7 <0.3.0",
      "resolved": "https://registry.npmjs.org/exceljs/-/exceljs-0.2.46.tgz",
      "dependencies": {
        "moment": {
          "version": "2.11.2",
          "from": "moment@2.11.2",
          "resolved": "https://registry.npmjs.org/moment/-/moment-2.11.2.tgz"
        }
      }
    },
    "express": {
      "version": "4.13.4",
      "from": "express@>=4.13.1 <4.14.0",
      "resolved": "https://registry.npmjs.org/express/-/express-4.13.4.tgz",
      "dependencies": {
        "accepts": {
          "version": "1.2.13",
          "from": "accepts@>=1.2.12 <1.3.0",
          "resolved": "https://registry.npmjs.org/accepts/-/accepts-1.2.13.tgz"
        },
        "cookie": {
          "version": "0.1.5",
          "from": "cookie@0.1.5",
          "resolved": "https://registry.npmjs.org/cookie/-/cookie-0.1.5.tgz"
        },
        "depd": {
          "version": "1.1.0",
          "from": "depd@>=1.1.0 <1.2.0",
          "resolved": "https://registry.npmjs.org/depd/-/depd-1.1.0.tgz"
        },
        "negotiator": {
          "version": "0.5.3",
          "from": "negotiator@0.5.3",
          "resolved": "https://registry.npmjs.org/negotiator/-/negotiator-0.5.3.tgz"
        },
        "vary": {
          "version": "1.0.1",
          "from": "vary@>=1.0.1 <1.1.0",
          "resolved": "https://registry.npmjs.org/vary/-/vary-1.0.1.tgz"
        }
      }
    },
    "express-session": {
      "version": "1.15.2",
      "from": "express-session@>=1.12.1 <2.0.0",
      "resolved": "https://registry.npmjs.org/express-session/-/express-session-1.15.2.tgz",
      "dependencies": {
        "cookie": {
          "version": "0.3.1",
          "from": "cookie@0.3.1",
          "resolved": "https://registry.npmjs.org/cookie/-/cookie-0.3.1.tgz"
        },
        "debug": {
          "version": "2.6.3",
          "from": "debug@2.6.3",
          "resolved": "https://registry.npmjs.org/debug/-/debug-2.6.3.tgz"
        },
        "depd": {
          "version": "1.1.0",
          "from": "depd@>=1.1.0 <1.2.0",
          "resolved": "https://registry.npmjs.org/depd/-/depd-1.1.0.tgz"
        }
      }
    },
    "extend": {
      "version": "3.0.0",
      "from": "extend@>=3.0.0 <3.1.0",
      "resolved": "https://registry.npmjs.org/extend/-/extend-3.0.0.tgz"
    },
    "extended": {
      "version": "0.0.6",
      "from": "extended@0.0.6",
      "resolved": "https://registry.npmjs.org/extended/-/extended-0.0.6.tgz"
    },
    "extender": {
      "version": "0.0.10",
      "from": "extender@>=0.0.5 <0.1.0",
      "resolved": "https://registry.npmjs.org/extender/-/extender-0.0.10.tgz"
    },
    "extsprintf": {
      "version": "1.3.0",
      "from": "extsprintf@>=1.2.0 <2.0.0",
      "resolved": "https://registry.npmjs.org/extsprintf/-/extsprintf-1.3.0.tgz"
    },
    "fast-csv": {
      "version": "0.5.7",
      "from": "fast-csv@0.5.7",
      "resolved": "https://registry.npmjs.org/fast-csv/-/fast-csv-0.5.7.tgz"
    },
    "faye-websocket": {
      "version": "0.11.1",
      "from": "faye-websocket@>=0.11.0 <0.12.0",
      "resolved": "https://registry.npmjs.org/faye-websocket/-/faye-websocket-0.11.1.tgz"
    },
    "fdfs": {
      "version": "1.0.4",
      "from": "fdfs@>=1.0.3 <2.0.0",
      "resolved": "https://registry.npmjs.org/fdfs/-/fdfs-1.0.4.tgz"
    },
    "finalhandler": {
      "version": "0.4.1",
      "from": "finalhandler@0.4.1",
      "resolved": "https://registry.npmjs.org/finalhandler/-/finalhandler-0.4.1.tgz"
    },
    "forever-agent": {
      "version": "0.6.1",
      "from": "forever-agent@>=0.6.1 <0.7.0",
      "resolved": "https://registry.npmjs.org/forever-agent/-/forever-agent-0.6.1.tgz"
    },
    "form-data": {
      "version": "2.1.2",
      "from": "form-data@>=2.1.1 <2.2.0",
      "resolved": "https://registry.npmjs.org/form-data/-/form-data-2.1.2.tgz"
    },
    "forwarded": {
      "version": "0.1.0",
      "from": "forwarded@>=0.1.0 <0.2.0",
      "resolved": "https://registry.npmjs.org/forwarded/-/forwarded-0.1.0.tgz"
    },
    "fresh": {
      "version": "0.3.0",
      "from": "fresh@0.3.0",
      "resolved": "https://registry.npmjs.org/fresh/-/fresh-0.3.0.tgz"
    },
    "fs.realpath": {
      "version": "1.0.0",
      "from": "fs.realpath@>=1.0.0 <2.0.0",
      "resolved": "https://registry.npmjs.org/fs.realpath/-/fs.realpath-1.0.0.tgz"
    },
    "fstream": {
      "version": "0.1.31",
      "from": "fstream@>=0.1.21 <0.2.0",
      "resolved": "https://registry.npmjs.org/fstream/-/fstream-0.1.31.tgz"
    },
    "getpass": {
      "version": "0.1.6",
      "from": "getpass@>=0.1.1 <0.2.0",
      "resolved": "https://registry.npmjs.org/getpass/-/getpass-0.1.6.tgz"
    },
    "glob": {
      "version": "5.0.15",
      "from": "glob@>=5.0.0 <5.1.0",
      "resolved": "https://registry.npmjs.org/glob/-/glob-5.0.15.tgz"
    },
    "graceful-fs": {
      "version": "3.0.11",
      "from": "graceful-fs@>=3.0.2 <3.1.0",
      "resolved": "https://registry.npmjs.org/graceful-fs/-/graceful-fs-3.0.11.tgz"
    },
    "har-schema": {
      "version": "1.0.5",
      "from": "har-schema@>=1.0.5 <2.0.0",
      "resolved": "https://registry.npmjs.org/har-schema/-/har-schema-1.0.5.tgz"
    },
    "har-validator": {
      "version": "4.2.1",
      "from": "har-validator@>=4.2.1 <4.3.0",
      "resolved": "https://registry.npmjs.org/har-validator/-/har-validator-4.2.1.tgz"
    },
    "has-binary": {
      "version": "0.1.7",
      "from": "has-binary@0.1.7",
      "resolved": "https://registry.npmjs.org/has-binary/-/has-binary-0.1.7.tgz"
    },
    "has-cors": {
      "version": "1.1.0",
      "from": "has-cors@1.1.0",
      "resolved": "https://registry.npmjs.org/has-cors/-/has-cors-1.1.0.tgz"
    },
    "hawk": {
      "version": "3.1.3",
      "from": "hawk@>=3.1.3 <3.2.0",
      "resolved": "https://registry.npmjs.org/hawk/-/hawk-3.1.3.tgz"
    },
    "hoek": {
      "version": "2.16.3",
      "from": "hoek@>=2.0.0 <3.0.0",
      "resolved": "https://registry.npmjs.org/hoek/-/hoek-2.16.3.tgz"
    },
    "hooks-fixed": {
      "version": "2.0.0",
      "from": "hooks-fixed@2.0.0",
      "resolved": "https://registry.npmjs.org/hooks-fixed/-/hooks-fixed-2.0.0.tgz"
    },
    "http-errors": {
      "version": "1.3.1",
      "from": "http-errors@>=1.3.1 <1.4.0",
      "resolved": "https://registry.npmjs.org/http-errors/-/http-errors-1.3.1.tgz"
    },
    "http-signature": {
      "version": "1.1.1",
      "from": "http-signature@>=1.1.0 <1.2.0",
      "resolved": "https://registry.npmjs.org/http-signature/-/http-signature-1.1.1.tgz",
      "dependencies": {
        "assert-plus": {
          "version": "0.2.0",
          "from": "assert-plus@>=0.2.0 <0.3.0",
          "resolved": "https://registry.npmjs.org/assert-plus/-/assert-plus-0.2.0.tgz"
        }
      }
    },
    "http2": {
      "version": "3.3.6",
      "from": "https://github.com/node-apn/node-http2/archive/apn-2.1.4.tar.gz",
      "resolved": "https://github.com/node-apn/node-http2/archive/apn-2.1.4.tar.gz"
    },
    "iconv-lite": {
      "version": "0.4.11",
      "from": "iconv-lite@0.4.11",
      "resolved": "https://registry.npmjs.org/iconv-lite/-/iconv-lite-0.4.11.tgz"
    },
    "immediate": {
      "version": "3.0.6",
      "from": "immediate@>=3.0.5 <3.1.0",
      "resolved": "https://registry.npmjs.org/immediate/-/immediate-3.0.6.tgz"
    },
    "indexof": {
      "version": "0.0.1",
      "from": "indexof@0.0.1",
      "resolved": "https://registry.npmjs.org/indexof/-/indexof-0.0.1.tgz"
    },
    "inflight": {
      "version": "1.0.6",
      "from": "inflight@>=1.0.4 <2.0.0",
      "resolved": "https://registry.npmjs.org/inflight/-/inflight-1.0.6.tgz"
    },
    "inherits": {
      "version": "2.0.3",
      "from": "inherits@>=2.0.1 <2.1.0",
      "resolved": "https://registry.npmjs.org/inherits/-/inherits-2.0.3.tgz"
    },
    "ipaddr.js": {
      "version": "1.0.5",
      "from": "ipaddr.js@1.0.5",
      "resolved": "https://registry.npmjs.org/ipaddr.js/-/ipaddr.js-1.0.5.tgz"
    },
    "is-class": {
      "version": "0.0.4",
      "from": "is-class@>=0.0.3 <0.1.0",
      "resolved": "https://registry.npmjs.org/is-class/-/is-class-0.0.4.tgz"
    },
    "is-extended": {
      "version": "0.0.10",
      "from": "is-extended@0.0.10",
      "resolved": "https://registry.npmjs.org/is-extended/-/is-extended-0.0.10.tgz"
    },
    "is-type-of": {
      "version": "1.0.0",
      "from": "is-type-of@>=1.0.0 <2.0.0",
      "resolved": "https://registry.npmjs.org/is-type-of/-/is-type-of-1.0.0.tgz"
    },
    "is-typedarray": {
      "version": "1.0.0",
      "from": "is-typedarray@>=1.0.0 <1.1.0",
      "resolved": "https://registry.npmjs.org/is-typedarray/-/is-typedarray-1.0.0.tgz"
    },
    "isarray": {
      "version": "0.0.1",
      "from": "isarray@0.0.1",
      "resolved": "https://registry.npmjs.org/isarray/-/isarray-0.0.1.tgz"
    },
    "isbuffer": {
      "version": "0.0.0",
      "from": "isbuffer@0.0.0",
      "resolved": "https://registry.npmjs.org/isbuffer/-/isbuffer-0.0.0.tgz"
    },
    "isemail": {
      "version": "1.2.0",
      "from": "isemail@>=1.0.0 <2.0.0",
      "resolved": "https://registry.npmjs.org/isemail/-/isemail-1.2.0.tgz"
    },
    "isstream": {
      "version": "0.1.2",
      "from": "isstream@>=0.1.2 <0.2.0",
      "resolved": "https://registry.npmjs.org/isstream/-/isstream-0.1.2.tgz"
    },
    "jodid25519": {
      "version": "1.0.2",
      "from": "jodid25519@>=1.0.0 <2.0.0",
      "resolved": "https://registry.npmjs.org/jodid25519/-/jodid25519-1.0.2.tgz",
      "optional": true
    },
    "joi": {
      "version": "6.10.1",
      "from": "joi@>=6.10.1 <7.0.0",
      "resolved": "https://registry.npmjs.org/joi/-/joi-6.10.1.tgz"
    },
    "jsbn": {
      "version": "0.1.1",
      "from": "jsbn@>=0.1.0 <0.2.0",
      "resolved": "https://registry.npmjs.org/jsbn/-/jsbn-0.1.1.tgz",
      "optional": true
    },
    "json-schema": {
      "version": "0.2.3",
      "from": "json-schema@0.2.3",
      "resolved": "https://registry.npmjs.org/json-schema/-/json-schema-0.2.3.tgz"
    },
    "json-stable-stringify": {
      "version": "1.0.1",
      "from": "json-stable-stringify@>=1.0.1 <2.0.0",
      "resolved": "https://registry.npmjs.org/json-stable-stringify/-/json-stable-stringify-1.0.1.tgz"
    },
    "json-stringify-safe": {
      "version": "5.0.1",
      "from": "json-stringify-safe@>=5.0.1 <5.1.0",
      "resolved": "https://registry.npmjs.org/json-stringify-safe/-/json-stringify-safe-5.0.1.tgz"
    },
    "json3": {
      "version": "3.3.2",
      "from": "json3@>=3.3.2 <4.0.0",
      "resolved": "https://registry.npmjs.org/json3/-/json3-3.3.2.tgz"
    },
    "jsonify": {
      "version": "0.0.0",
      "from": "jsonify@>=0.0.0 <0.1.0",
      "resolved": "https://registry.npmjs.org/jsonify/-/jsonify-0.0.0.tgz"
    },
    "jsonwebtoken": {
      "version": "7.3.0",
      "from": "jsonwebtoken@>=7.2.1 <8.0.0",
      "resolved": "https://registry.npmjs.org/jsonwebtoken/-/jsonwebtoken-7.3.0.tgz"
    },
    "jsprim": {
      "version": "1.4.0",
      "from": "jsprim@>=1.2.2 <2.0.0",
      "resolved": "https://registry.npmjs.org/jsprim/-/jsprim-1.4.0.tgz",
      "dependencies": {
        "extsprintf": {
          "version": "1.0.2",
          "from": "extsprintf@1.0.2",
          "resolved": "https://registry.npmjs.org/extsprintf/-/extsprintf-1.0.2.tgz"
        },
        "verror": {
          "version": "1.3.6",
          "from": "verror@1.3.6",
          "resolved": "https://registry.npmjs.org/verror/-/verror-1.3.6.tgz"
        }
      }
    },
    "jszip": {
      "version": "3.1.3",
      "from": "jszip@3.1.3",
      "resolved": "https://registry.npmjs.org/jszip/-/jszip-3.1.3.tgz",
      "dependencies": {
        "es6-promise": {
          "version": "3.0.2",
          "from": "es6-promise@>=3.0.2 <3.1.0",
          "resolved": "https://registry.npmjs.org/es6-promise/-/es6-promise-3.0.2.tgz"
        },
        "isarray": {
          "version": "1.0.0",
          "from": "isarray@>=1.0.0 <1.1.0",
          "resolved": "https://registry.npmjs.org/isarray/-/isarray-1.0.0.tgz"
        },
        "readable-stream": {
          "version": "2.0.6",
          "from": "readable-stream@>=2.0.6 <2.1.0",
          "resolved": "https://registry.npmjs.org/readable-stream/-/readable-stream-2.0.6.tgz"
        }
      }
    },
    "jwa": {
      "version": "1.1.5",
      "from": "jwa@>=1.1.4 <2.0.0",
      "resolved": "https://registry.npmjs.org/jwa/-/jwa-1.1.5.tgz"
    },
    "jws": {
      "version": "3.1.4",
      "from": "jws@>=3.1.4 <4.0.0",
      "resolved": "https://registry.npmjs.org/jws/-/jws-3.1.4.tgz"
    },
    "kareem": {
      "version": "1.4.0",
      "from": "kareem@1.4.0",
      "resolved": "https://registry.npmjs.org/kareem/-/kareem-1.4.0.tgz"
    },
    "kerberos": {
      "version": "0.0.22",
      "from": "kerberos@0.0.22",
      "resolved": "https://registry.npmjs.org/kerberos/-/kerberos-0.0.22.tgz"
    },
    "kurento-client": {
      "version": "6.6.0",
      "from": "kurento-client@>=6.6.0 <7.0.0",
      "resolved": "https://registry.npmjs.org/kurento-client/-/kurento-client-6.6.0.tgz",
      "dependencies": {
        "async": {
          "version": "1.2.1",
          "from": "async@>=1.2.1 <1.3.0",
          "resolved": "https://registry.npmjs.org/async/-/async-1.2.1.tgz"
        },
        "es6-promise": {
          "version": "3.3.1",
          "from": "es6-promise@>=3.2.1 <4.0.0",
          "resolved": "https://registry.npmjs.org/es6-promise/-/es6-promise-3.3.1.tgz"
        },
        "extend": {
          "version": "2.0.1",
          "from": "extend@>=2.0.1 <3.0.0",
          "resolved": "https://registry.npmjs.org/extend/-/extend-2.0.1.tgz"
        },
        "minimist": {
          "version": "1.2.0",
          "from": "minimist@>=1.1.1 <2.0.0",
          "resolved": "https://registry.npmjs.org/minimist/-/minimist-1.2.0.tgz"
        }
      }
    },
    "kurento-client-core": {
      "version": "6.6.0",
      "from": "kurento-client-core@6.6.0",
      "resolved": "https://registry.npmjs.org/kurento-client-core/-/kurento-client-core-6.6.0.tgz"
    },
    "kurento-client-elements": {
      "version": "6.6.0",
      "from": "kurento-client-elements@6.6.0",
      "resolved": "https://registry.npmjs.org/kurento-client-elements/-/kurento-client-elements-6.6.0.tgz"
    },
    "kurento-client-filters": {
      "version": "6.6.0",
      "from": "kurento-client-filters@6.6.0",
      "resolved": "https://registry.npmjs.org/kurento-client-filters/-/kurento-client-filters-6.6.0.tgz"
    },
    "kurento-jsonrpc": {
      "version": "5.1.3",
      "from": "kurento-jsonrpc@5.1.3",
      "resolved": "https://registry.npmjs.org/kurento-jsonrpc/-/kurento-jsonrpc-5.1.3.tgz"
    },
    "lazystream": {
      "version": "0.1.0",
      "from": "lazystream@>=0.1.0 <0.2.0",
      "resolved": "https://registry.npmjs.org/lazystream/-/lazystream-0.1.0.tgz"
    },
    "lie": {
      "version": "3.1.1",
      "from": "lie@>=3.1.0 <3.2.0",
      "resolved": "https://registry.npmjs.org/lie/-/lie-3.1.1.tgz"
    },
    "lodash": {
      "version": "4.17.4",
      "from": "lodash@*",
      "resolved": "https://registry.npmjs.org/lodash/-/lodash-4.17.4.tgz"
    },
    "lodash.once": {
      "version": "4.1.1",
      "from": "lodash.once@>=4.0.0 <5.0.0",
      "resolved": "https://registry.npmjs.org/lodash.once/-/lodash.once-4.1.1.tgz"
    },
    "loglevel": {
      "version": "1.4.1",
      "from": "loglevel@>=1.4.0 <2.0.0",
      "resolved": "https://registry.npmjs.org/loglevel/-/loglevel-1.4.1.tgz"
    },
    "long-timeout": {
      "version": "0.1.1",
      "from": "long-timeout@0.1.1",
      "resolved": "https://registry.npmjs.org/long-timeout/-/long-timeout-0.1.1.tgz"
    },
    "lru-cache": {
      "version": "4.0.2",
      "from": "lru-cache@>=4.0.1 <5.0.0",
      "resolved": "https://registry.npmjs.org/lru-cache/-/lru-cache-4.0.2.tgz"
    },
    "match-stream": {
      "version": "0.0.2",
      "from": "match-stream@>=0.0.2 <0.1.0",
      "resolved": "https://registry.npmjs.org/match-stream/-/match-stream-0.0.2.tgz"
    },
    "media-typer": {
      "version": "0.3.0",
      "from": "media-typer@0.3.0",
      "resolved": "https://registry.npmjs.org/media-typer/-/media-typer-0.3.0.tgz"
    },
    "merge-descriptors": {
      "version": "1.0.1",
      "from": "merge-descriptors@1.0.1",
      "resolved": "https://registry.npmjs.org/merge-descriptors/-/merge-descriptors-1.0.1.tgz"
    },
    "methods": {
      "version": "1.1.2",
      "from": "methods@>=1.1.2 <1.2.0",
      "resolved": "https://registry.npmjs.org/methods/-/methods-1.1.2.tgz"
    },
    "mime": {
      "version": "1.3.4",
      "from": "mime@1.3.4",
      "resolved": "https://registry.npmjs.org/mime/-/mime-1.3.4.tgz"
    },
    "mime-db": {
      "version": "1.27.0",
      "from": "mime-db@>=1.27.0 <1.28.0",
      "resolved": "https://registry.npmjs.org/mime-db/-/mime-db-1.27.0.tgz"
    },
    "mime-types": {
      "version": "2.1.15",
      "from": "mime-types@>=2.1.15 <2.2.0",
      "resolved": "https://registry.npmjs.org/mime-types/-/mime-types-2.1.15.tgz"
    },
    "minimatch": {
      "version": "3.0.3",
      "from": "minimatch@>=2.0.0 <3.0.0||>=3.0.0 <4.0.0",
      "resolved": "https://registry.npmjs.org/minimatch/-/minimatch-3.0.3.tgz"
    },
    "minimist": {
      "version": "0.0.8",
      "from": "minimist@0.0.8",
      "resolved": "https://registry.npmjs.org/minimist/-/minimist-0.0.8.tgz"
    },
    "mkdirp": {
      "version": "0.5.1",
      "from": "mkdirp@>=0.5.0 <0.6.0",
      "resolved": "https://registry.npmjs.org/mkdirp/-/mkdirp-0.5.1.tgz"
    },
    "moment": {
      "version": "2.18.1",
      "from": "moment@>=2.0.0 <3.0.0",
      "resolved": "https://registry.npmjs.org/moment/-/moment-2.18.1.tgz"
    },
    "mongodb": {
      "version": "2.0.55",
      "from": "mongodb@>=1.2.0 <2.1.0",
      "resolved": "https://registry.npmjs.org/mongodb/-/mongodb-2.0.55.tgz"
    },
    "mongodb-core": {
      "version": "1.2.31",
      "from": "mongodb-core@1.2.31",
      "resolved": "https://registry.npmjs.org/mongodb-core/-/mongodb-core-1.2.31.tgz"
    },
    "mongoose": {
      "version": "4.9.6",
      "from": "mongoose@4.9.6",
      "resolved": "https://registry.npmjs.org/mongoose/-/mongoose-4.9.6.tgz",
      "dependencies": {
        "async": {
          "version": "2.1.4",
          "from": "async@2.1.4",
          "resolved": "https://registry.npmjs.org/async/-/async-2.1.4.tgz"
        },
        "bson": {
          "version": "1.0.4",
          "from": "bson@>=1.0.4 <1.1.0",
          "resolved": "https://registry.npmjs.org/bson/-/bson-1.0.4.tgz"
        },
        "es6-promise": {
          "version": "3.2.1",
          "from": "es6-promise@3.2.1",
          "resolved": "https://registry.npmjs.org/es6-promise/-/es6-promise-3.2.1.tgz"
        },
        "isarray": {
          "version": "1.0.0",
          "from": "isarray@>=1.0.0 <1.1.0",
          "resolved": "https://registry.npmjs.org/isarray/-/isarray-1.0.0.tgz"
        },
        "mongodb": {
          "version": "2.2.26",
          "from": "mongodb@2.2.26",
          "resolved": "https://registry.npmjs.org/mongodb/-/mongodb-2.2.26.tgz"
        },
        "mongodb-core": {
          "version": "2.1.10",
          "from": "mongodb-core@2.1.10",
          "resolved": "https://registry.npmjs.org/mongodb-core/-/mongodb-core-2.1.10.tgz"
        },
        "readable-stream": {
          "version": "2.2.7",
          "from": "readable-stream@2.2.7",
          "resolved": "https://registry.npmjs.org/readable-stream/-/readable-stream-2.2.7.tgz"
        },
        "string_decoder": {
          "version": "1.0.0",
          "from": "string_decoder@>=1.0.0 <1.1.0",
          "resolved": "https://registry.npmjs.org/string_decoder/-/string_decoder-1.0.0.tgz"
        }
      }
    },
    "morgan": {
      "version": "1.6.1",
      "from": "morgan@>=1.6.1 <1.7.0",
      "resolved": "https://registry.npmjs.org/morgan/-/morgan-1.6.1.tgz"
    },
    "mpath": {
      "version": "0.2.1",
      "from": "mpath@0.2.1",
      "resolved": "https://registry.npmjs.org/mpath/-/mpath-0.2.1.tgz"
    },
    "mpromise": {
      "version": "0.5.5",
      "from": "mpromise@0.5.5",
      "resolved": "https://registry.npmjs.org/mpromise/-/mpromise-0.5.5.tgz"
    },
    "mquery": {
      "version": "2.3.0",
      "from": "mquery@2.3.0",
      "resolved": "https://registry.npmjs.org/mquery/-/mquery-2.3.0.tgz",
      "dependencies": {
        "bluebird": {
          "version": "2.10.2",
          "from": "bluebird@2.10.2",
          "resolved": "https://registry.npmjs.org/bluebird/-/bluebird-2.10.2.tgz"
        },
        "sliced": {
          "version": "0.0.5",
          "from": "sliced@0.0.5",
          "resolved": "https://registry.npmjs.org/sliced/-/sliced-0.0.5.tgz"
        }
      }
    },
    "ms": {
      "version": "0.7.2",
      "from": "ms@0.7.2",
      "resolved": "https://registry.npmjs.org/ms/-/ms-0.7.2.tgz"
    },
    "multer": {
      "version": "1.3.0",
      "from": "multer@>=1.1.0 <2.0.0",
      "resolved": "https://registry.npmjs.org/multer/-/multer-1.3.0.tgz"
    },
    "muri": {
      "version": "1.2.1",
      "from": "muri@1.2.1",
      "resolved": "https://registry.npmjs.org/muri/-/muri-1.2.1.tgz"
    },
    "nan": {
      "version": "2.4.0",
      "from": "nan@>=2.4.0 <2.5.0",
      "resolved": "https://registry.npmjs.org/nan/-/nan-2.4.0.tgz"
    },
    "natives": {
      "version": "1.1.0",
      "from": "natives@>=1.1.0 <2.0.0",
      "resolved": "https://registry.npmjs.org/natives/-/natives-1.1.0.tgz"
    },
    "negotiator": {
      "version": "0.6.1",
      "from": "negotiator@0.6.1",
      "resolved": "https://registry.npmjs.org/negotiator/-/negotiator-0.6.1.tgz"
    },
    "node-forge": {
      "version": "0.6.49",
      "from": "node-forge@>=0.6.48 <0.7.0",
      "resolved": "https://registry.npmjs.org/node-forge/-/node-forge-0.6.49.tgz"
    },
    "node-int64": {
      "version": "0.3.3",
      "from": "node-int64@>=0.3.0 <0.4.0",
      "resolved": "https://registry.npmjs.org/node-int64/-/node-int64-0.3.3.tgz"
    },
    "node-schedule": {
      "version": "1.2.1",
      "from": "node-schedule@>=1.2.0 <2.0.0",
      "resolved": "https://registry.npmjs.org/node-schedule/-/node-schedule-1.2.1.tgz"
    },
    "oauth-sign": {
      "version": "0.8.2",
      "from": "oauth-sign@>=0.8.1 <0.9.0",
      "resolved": "https://registry.npmjs.org/oauth-sign/-/oauth-sign-0.8.2.tgz"
    },
    "object-assign": {
      "version": "3.0.0",
      "from": "object-assign@>=3.0.0 <4.0.0",
      "resolved": "https://registry.npmjs.org/object-assign/-/object-assign-3.0.0.tgz"
    },
    "object-component": {
      "version": "0.0.3",
      "from": "object-component@0.0.3",
      "resolved": "https://registry.npmjs.org/object-component/-/object-component-0.0.3.tgz"
    },
    "object-extended": {
      "version": "0.0.7",
      "from": "object-extended@0.0.7",
      "resolved": "https://registry.npmjs.org/object-extended/-/object-extended-0.0.7.tgz"
    },
    "on-finished": {
      "version": "2.3.0",
      "from": "on-finished@>=2.3.0 <2.4.0",
      "resolved": "https://registry.npmjs.org/on-finished/-/on-finished-2.3.0.tgz"
    },
    "on-headers": {
      "version": "1.0.1",
      "from": "on-headers@>=1.0.1 <1.1.0",
      "resolved": "https://registry.npmjs.org/on-headers/-/on-headers-1.0.1.tgz"
    },
    "once": {
      "version": "1.4.0",
      "from": "once@>=1.3.0 <2.0.0",
      "resolved": "https://registry.npmjs.org/once/-/once-1.4.0.tgz"
    },
    "options": {
      "version": "0.0.6",
      "from": "options@>=0.0.5",
      "resolved": "https://registry.npmjs.org/options/-/options-0.0.6.tgz"
    },
    "original": {
      "version": "1.0.0",
      "from": "original@>=0.0.5",
      "resolved": "https://registry.npmjs.org/original/-/original-1.0.0.tgz",
      "dependencies": {
        "url-parse": {
          "version": "1.0.5",
          "from": "url-parse@>=1.0.0 <1.1.0",
          "resolved": "https://registry.npmjs.org/url-parse/-/url-parse-1.0.5.tgz"
        }
      }
    },
    "over": {
      "version": "0.0.5",
      "from": "over@>=0.0.5 <1.0.0",
      "resolved": "https://registry.npmjs.org/over/-/over-0.0.5.tgz"
    },
    "pako": {
      "version": "1.0.5",
      "from": "pako@>=1.0.2 <1.1.0",
      "resolved": "https://registry.npmjs.org/pako/-/pako-1.0.5.tgz"
    },
    "parsejson": {
      "version": "0.0.3",
      "from": "parsejson@0.0.3",
      "resolved": "https://registry.npmjs.org/parsejson/-/parsejson-0.0.3.tgz"
    },
    "parseqs": {
      "version": "0.0.5",
      "from": "parseqs@0.0.5",
      "resolved": "https://registry.npmjs.org/parseqs/-/parseqs-0.0.5.tgz"
    },
    "parseuri": {
      "version": "0.0.5",
      "from": "parseuri@0.0.5",
      "resolved": "https://registry.npmjs.org/parseuri/-/parseuri-0.0.5.tgz"
    },
    "parseurl": {
      "version": "1.3.1",
      "from": "parseurl@>=1.3.1 <1.4.0",
      "resolved": "https://registry.npmjs.org/parseurl/-/parseurl-1.3.1.tgz"
    },
    "passport": {
      "version": "0.3.2",
      "from": "passport@>=0.3.0 <0.4.0",
      "resolved": "https://registry.npmjs.org/passport/-/passport-0.3.2.tgz"
    },
    "passport-local": {
      "version": "1.0.0",
      "from": "passport-local@>=1.0.0 <2.0.0",
      "resolved": "https://registry.npmjs.org/passport-local/-/passport-local-1.0.0.tgz"
    },
    "passport-strategy": {
      "version": "1.0.0",
      "from": "passport-strategy@>=1.0.0 <2.0.0",
      "resolved": "https://registry.npmjs.org/passport-strategy/-/passport-strategy-1.0.0.tgz"
    },
    "path-is-absolute": {
      "version": "1.0.1",
      "from": "path-is-absolute@>=1.0.0 <2.0.0",
      "resolved": "https://registry.npmjs.org/path-is-absolute/-/path-is-absolute-1.0.1.tgz"
    },
    "path-to-regexp": {
      "version": "0.1.7",
      "from": "path-to-regexp@0.1.7",
      "resolved": "https://registry.npmjs.org/path-to-regexp/-/path-to-regexp-0.1.7.tgz"
    },
    "pause": {
      "version": "0.0.1",
      "from": "pause@0.0.1",
      "resolved": "https://registry.npmjs.org/pause/-/pause-0.0.1.tgz"
    },
    "performance-now": {
      "version": "0.2.0",
      "from": "performance-now@>=0.2.0 <0.3.0",
      "resolved": "https://registry.npmjs.org/performance-now/-/performance-now-0.2.0.tgz"
    },
    "process-nextick-args": {
      "version": "1.0.7",
      "from": "process-nextick-args@>=1.0.6 <1.1.0",
      "resolved": "https://registry.npmjs.org/process-nextick-args/-/process-nextick-args-1.0.7.tgz"
    },
    "promise": {
      "version": "7.0.2",
      "from": "promise@7.0.2",
      "resolved": "https://registry.npmjs.org/promise/-/promise-7.0.2.tgz"
    },
    "promisecallback": {
      "version": "0.0.4",
      "from": "promisecallback@0.0.4",
      "resolved": "https://registry.npmjs.org/promisecallback/-/promisecallback-0.0.4.tgz"
    },
    "proxy-addr": {
      "version": "1.0.10",
      "from": "proxy-addr@>=1.0.10 <1.1.0",
      "resolved": "https://registry.npmjs.org/proxy-addr/-/proxy-addr-1.0.10.tgz"
    },
    "pseudomap": {
      "version": "1.0.2",
      "from": "pseudomap@>=1.0.1 <2.0.0",
      "resolved": "https://registry.npmjs.org/pseudomap/-/pseudomap-1.0.2.tgz"
    },
    "pullstream": {
      "version": "0.4.1",
      "from": "pullstream@>=0.4.0 <0.5.0",
      "resolved": "https://registry.npmjs.org/pullstream/-/pullstream-0.4.1.tgz"
    },
    "punycode": {
      "version": "1.4.1",
      "from": "punycode@>=1.4.1 <2.0.0",
      "resolved": "https://registry.npmjs.org/punycode/-/punycode-1.4.1.tgz"
    },
    "qs": {
      "version": "4.0.0",
      "from": "qs@4.0.0",
      "resolved": "https://registry.npmjs.org/qs/-/qs-4.0.0.tgz"
    },
    "querystringify": {
      "version": "0.0.4",
      "from": "querystringify@>=0.0.0 <0.1.0",
      "resolved": "https://registry.npmjs.org/querystringify/-/querystringify-0.0.4.tgz"
    },
    "random-bytes": {
      "version": "1.0.0",
      "from": "random-bytes@>=1.0.0 <1.1.0",
      "resolved": "https://registry.npmjs.org/random-bytes/-/random-bytes-1.0.0.tgz"
    },
    "range-parser": {
      "version": "1.0.3",
      "from": "range-parser@>=1.0.3 <1.1.0",
      "resolved": "https://registry.npmjs.org/range-parser/-/range-parser-1.0.3.tgz"
    },
    "raw-body": {
      "version": "2.1.7",
      "from": "raw-body@>=2.1.2 <2.2.0",
      "resolved": "https://registry.npmjs.org/raw-body/-/raw-body-2.1.7.tgz",
      "dependencies": {
        "bytes": {
          "version": "2.4.0",
          "from": "bytes@2.4.0",
          "resolved": "https://registry.npmjs.org/bytes/-/bytes-2.4.0.tgz"
        },
        "iconv-lite": {
          "version": "0.4.13",
          "from": "iconv-lite@0.4.13",
          "resolved": "https://registry.npmjs.org/iconv-lite/-/iconv-lite-0.4.13.tgz"
        }
      }
    },
    "readable-stream": {
      "version": "1.0.31",
      "from": "readable-stream@1.0.31",
      "resolved": "https://registry.npmjs.org/readable-stream/-/readable-stream-1.0.31.tgz"
    },
    "reconnect-core": {
      "version": "1.0.0",
      "from": "kurentoforks/reconnect-core",
      "resolved": "git://github.com/kurentoforks/reconnect-core.git#921d43e91578abb2fb2613f585c010c1939cf734"
    },
    "reconnect-ws": {
      "version": "0.0.0",
      "from": "kurentoforks/reconnect-ws#0.0.1",
      "resolved": "git://github.com/kurentoforks/reconnect-ws.git#7fb7020e3ca1ffeaaa8bb4ddd690cf28c8d02a2b"
    },
    "regexp-clone": {
      "version": "0.0.1",
      "from": "regexp-clone@0.0.1",
      "resolved": "https://registry.npmjs.org/regexp-clone/-/regexp-clone-0.0.1.tgz"
    },
    "request": {
      "version": "2.81.0",
      "from": "request@>=2.74.0 <3.0.0",
      "resolved": "https://registry.npmjs.org/request/-/request-2.81.0.tgz",
      "dependencies": {
        "qs": {
          "version": "6.4.0",
          "from": "qs@>=6.4.0 <6.5.0",
          "resolved": "https://registry.npmjs.org/qs/-/qs-6.4.0.tgz"
        }
      }
    },
    "request-promise": {
      "version": "4.2.0",
      "from": "request-promise@>=4.1.1 <5.0.0",
      "resolved": "https://registry.npmjs.org/request-promise/-/request-promise-4.2.0.tgz"
    },
    "request-promise-core": {
      "version": "1.1.1",
      "from": "request-promise-core@1.1.1",
      "resolved": "https://registry.npmjs.org/request-promise-core/-/request-promise-core-1.1.1.tgz"
    },
    "require_optional": {
      "version": "1.0.0",
      "from": "require_optional@>=1.0.0 <1.1.0",
      "resolved": "https://registry.npmjs.org/require_optional/-/require_optional-1.0.0.tgz"
    },
    "requires-port": {
      "version": "1.0.0",
      "from": "requires-port@>=1.0.0 <1.1.0",
      "resolved": "https://registry.npmjs.org/requires-port/-/requires-port-1.0.0.tgz"
    },
    "resolve-from": {
      "version": "2.0.0",
      "from": "resolve-from@>=2.0.0 <3.0.0",
      "resolved": "https://registry.npmjs.org/resolve-from/-/resolve-from-2.0.0.tgz"
    },
    "rimraf": {
      "version": "2.6.1",
      "from": "rimraf@>=2.0.0 <3.0.0",
      "resolved": "https://registry.npmjs.org/rimraf/-/rimraf-2.6.1.tgz",
      "dependencies": {
        "glob": {
          "version": "7.1.1",
          "from": "glob@>=7.0.5 <8.0.0",
          "resolved": "https://registry.npmjs.org/glob/-/glob-7.1.1.tgz"
        }
      }
    },
    "safe-buffer": {
      "version": "5.0.1",
      "from": "safe-buffer@>=5.0.1 <6.0.0",
      "resolved": "https://registry.npmjs.org/safe-buffer/-/safe-buffer-5.0.1.tgz"
    },
    "sax": {
      "version": "0.6.1",
      "from": "sax@>=0.6.0 <0.7.0",
      "resolved": "https://registry.npmjs.org/sax/-/sax-0.6.1.tgz"
    },
    "semver": {
      "version": "5.3.0",
      "from": "semver@>=5.1.0 <6.0.0",
      "resolved": "https://registry.npmjs.org/semver/-/semver-5.3.0.tgz"
    },
    "send": {
      "version": "0.13.1",
      "from": "send@0.13.1",
      "resolved": "https://registry.npmjs.org/send/-/send-0.13.1.tgz",
      "dependencies": {
        "depd": {
          "version": "1.1.0",
          "from": "depd@>=1.1.0 <1.2.0",
          "resolved": "https://registry.npmjs.org/depd/-/depd-1.1.0.tgz"
        },
        "ms": {
          "version": "0.7.1",
          "from": "ms@0.7.1",
          "resolved": "https://registry.npmjs.org/ms/-/ms-0.7.1.tgz"
        },
        "statuses": {
          "version": "1.2.1",
          "from": "statuses@>=1.2.1 <1.3.0",
          "resolved": "https://registry.npmjs.org/statuses/-/statuses-1.2.1.tgz"
        }
      }
    },
    "serve-favicon": {
      "version": "2.3.2",
      "from": "serve-favicon@>=2.3.0 <2.4.0",
      "resolved": "https://registry.npmjs.org/serve-favicon/-/serve-favicon-2.3.2.tgz"
    },
    "serve-static": {
      "version": "1.10.3",
      "from": "serve-static@>=1.10.2 <1.11.0",
      "resolved": "https://registry.npmjs.org/serve-static/-/serve-static-1.10.3.tgz",
      "dependencies": {
        "depd": {
          "version": "1.1.0",
          "from": "depd@>=1.1.0 <1.2.0",
          "resolved": "https://registry.npmjs.org/depd/-/depd-1.1.0.tgz"
        },
        "ms": {
          "version": "0.7.1",
          "from": "ms@0.7.1",
          "resolved": "https://registry.npmjs.org/ms/-/ms-0.7.1.tgz"
        },
        "send": {
          "version": "0.13.2",
          "from": "send@0.13.2",
          "resolved": "https://registry.npmjs.org/send/-/send-0.13.2.tgz"
        },
        "statuses": {
          "version": "1.2.1",
          "from": "statuses@>=1.2.1 <1.3.0",
          "resolved": "https://registry.npmjs.org/statuses/-/statuses-1.2.1.tgz"
        }
      }
    },
    "setimmediate": {
      "version": "1.0.5",
      "from": "setimmediate@>=1.0.1 <1.1.0",
      "resolved": "https://registry.npmjs.org/setimmediate/-/setimmediate-1.0.5.tgz"
    },
    "slice-stream": {
      "version": "1.0.0",
      "from": "slice-stream@>=1.0.0 <2.0.0",
      "resolved": "https://registry.npmjs.org/slice-stream/-/slice-stream-1.0.0.tgz"
    },
    "sliced": {
      "version": "1.0.1",
      "from": "sliced@1.0.1",
      "resolved": "https://registry.npmjs.org/sliced/-/sliced-1.0.1.tgz"
    },
    "sntp": {
      "version": "1.0.9",
      "from": "sntp@>=1.0.0 <2.0.0",
      "resolved": "https://registry.npmjs.org/sntp/-/sntp-1.0.9.tgz"
    },
    "socket.io": {
      "version": "1.7.3",
      "from": "socket.io@>=1.7.2 <2.0.0",
      "resolved": "https://registry.npmjs.org/socket.io/-/socket.io-1.7.3.tgz",
      "dependencies": {
        "debug": {
          "version": "2.3.3",
          "from": "debug@2.3.3",
          "resolved": "https://registry.npmjs.org/debug/-/debug-2.3.3.tgz"
        },
        "object-assign": {
          "version": "4.1.0",
          "from": "object-assign@4.1.0",
          "resolved": "https://registry.npmjs.org/object-assign/-/object-assign-4.1.0.tgz"
        }
      }
    },
    "socket.io-adapter": {
      "version": "0.5.0",
      "from": "socket.io-adapter@0.5.0",
      "resolved": "https://registry.npmjs.org/socket.io-adapter/-/socket.io-adapter-0.5.0.tgz",
      "dependencies": {
        "debug": {
          "version": "2.3.3",
          "from": "debug@2.3.3",
          "resolved": "https://registry.npmjs.org/debug/-/debug-2.3.3.tgz"
        }
      }
    },
    "socket.io-client": {
      "version": "1.7.3",
      "from": "socket.io-client@1.7.3",
      "resolved": "https://registry.npmjs.org/socket.io-client/-/socket.io-client-1.7.3.tgz",
      "dependencies": {
        "component-emitter": {
          "version": "1.2.1",
          "from": "component-emitter@1.2.1",
          "resolved": "https://registry.npmjs.org/component-emitter/-/component-emitter-1.2.1.tgz"
        },
        "debug": {
          "version": "2.3.3",
          "from": "debug@2.3.3",
          "resolved": "https://registry.npmjs.org/debug/-/debug-2.3.3.tgz"
        }
      }
    },
    "socket.io-parser": {
      "version": "2.3.1",
      "from": "socket.io-parser@2.3.1",
      "resolved": "https://registry.npmjs.org/socket.io-parser/-/socket.io-parser-2.3.1.tgz"
    },
    "sockjs-client": {
      "version": "1.1.1",
      "from": "sockjs-client@1.1.1",
      "resolved": "https://registry.npmjs.org/sockjs-client/-/sockjs-client-1.1.1.tgz"
    },
    "sorted-array-functions": {
      "version": "1.0.0",
      "from": "sorted-array-functions@>=1.0.0 <2.0.0",
      "resolved": "https://registry.npmjs.org/sorted-array-functions/-/sorted-array-functions-1.0.0.tgz"
    },
    "sshpk": {
      "version": "1.11.0",
      "from": "sshpk@>=1.7.0 <2.0.0",
      "resolved": "https://registry.npmjs.org/sshpk/-/sshpk-1.11.0.tgz"
    },
    "statuses": {
      "version": "1.3.1",
      "from": "statuses@>=1.0.0 <2.0.0",
      "resolved": "https://registry.npmjs.org/statuses/-/statuses-1.3.1.tgz"
    },
    "stealthy-require": {
      "version": "1.0.0",
      "from": "stealthy-require@>=1.0.0 <2.0.0",
      "resolved": "https://registry.npmjs.org/stealthy-require/-/stealthy-require-1.0.0.tgz"
    },
    "streamsearch": {
      "version": "0.1.2",
      "from": "streamsearch@0.1.2",
      "resolved": "https://registry.npmjs.org/streamsearch/-/streamsearch-0.1.2.tgz"
    },
    "string_decoder": {
      "version": "0.10.31",
      "from": "string_decoder@>=0.10.0 <0.11.0",
      "resolved": "https://registry.npmjs.org/string_decoder/-/string_decoder-0.10.31.tgz"
    },
    "string-extended": {
      "version": "0.0.8",
      "from": "string-extended@0.0.8",
      "resolved": "https://registry.npmjs.org/string-extended/-/string-extended-0.0.8.tgz"
    },
    "stringstream": {
      "version": "0.0.5",
      "from": "stringstream@>=0.0.4 <0.1.0",
      "resolved": "https://registry.npmjs.org/stringstream/-/stringstream-0.0.5.tgz"
    },
    "tar-stream": {
      "version": "1.2.2",
      "from": "tar-stream@>=1.2.1 <1.3.0",
      "resolved": "https://registry.npmjs.org/tar-stream/-/tar-stream-1.2.2.tgz",
      "dependencies": {
        "isarray": {
          "version": "1.0.0",
          "from": "isarray@>=1.0.0 <1.1.0",
          "resolved": "https://registry.npmjs.org/isarray/-/isarray-1.0.0.tgz"
        },
        "readable-stream": {
          "version": "2.2.6",
          "from": "readable-stream@>=2.0.0 <3.0.0",
          "resolved": "https://registry.npmjs.org/readable-stream/-/readable-stream-2.2.6.tgz"
        }
      }
    },
    "through": {
      "version": "2.3.8",
      "from": "through@>=2.3.4 <2.4.0",
      "resolved": "https://registry.npmjs.org/through/-/through-2.3.8.tgz"
    },
    "tinycolor": {
      "version": "0.0.1",
      "from": "tinycolor@>=0.0.0 <1.0.0",
      "resolved": "https://registry.npmjs.org/tinycolor/-/tinycolor-0.0.1.tgz"
    },
    "to-array": {
      "version": "0.1.4",
      "from": "to-array@0.1.4",
      "resolved": "https://registry.npmjs.org/to-array/-/to-array-0.1.4.tgz"
    },
    "topo": {
      "version": "1.1.0",
      "from": "topo@>=1.0.0 <2.0.0",
      "resolved": "https://registry.npmjs.org/topo/-/topo-1.1.0.tgz"
    },
    "tough-cookie": {
      "version": "2.3.2",
      "from": "tough-cookie@>=2.3.0 <2.4.0",
      "resolved": "https://registry.npmjs.org/tough-cookie/-/tough-cookie-2.3.2.tgz"
    },
    "traverse": {
      "version": "0.3.9",
      "from": "traverse@>=0.3.0 <0.4.0",
      "resolved": "https://registry.npmjs.org/traverse/-/traverse-0.3.9.tgz"
    },
    "tunnel-agent": {
      "version": "0.6.0",
      "from": "tunnel-agent@>=0.6.0 <0.7.0",
      "resolved": "https://registry.npmjs.org/tunnel-agent/-/tunnel-agent-0.6.0.tgz"
    },
    "tweetnacl": {
      "version": "0.14.5",
      "from": "tweetnacl@>=0.14.0 <0.15.0",
      "resolved": "https://registry.npmjs.org/tweetnacl/-/tweetnacl-0.14.5.tgz",
      "optional": true
    },
    "type-is": {
      "version": "1.6.15",
      "from": "type-is@>=1.6.6 <1.7.0",
      "resolved": "https://registry.npmjs.org/type-is/-/type-is-1.6.15.tgz"
    },
    "typedarray": {
      "version": "0.0.6",
      "from": "typedarray@>=0.0.6 <0.0.7",
      "resolved": "https://registry.npmjs.org/typedarray/-/typedarray-0.0.6.tgz"
    },
    "uid-safe": {
      "version": "2.1.4",
      "from": "uid-safe@>=2.1.4 <2.2.0",
      "resolved": "https://registry.npmjs.org/uid-safe/-/uid-safe-2.1.4.tgz"
    },
    "ultron": {
      "version": "1.0.2",
      "from": "ultron@>=1.0.0 <1.1.0",
      "resolved": "https://registry.npmjs.org/ultron/-/ultron-1.0.2.tgz"
    },
    "underscore": {
      "version": "1.8.3",
      "from": "underscore@>=1.8.3 <2.0.0",
      "resolved": "https://registry.npmjs.org/underscore/-/underscore-1.8.3.tgz"
    },
    "unpipe": {
      "version": "1.0.0",
      "from": "unpipe@1.0.0",
      "resolved": "https://registry.npmjs.org/unpipe/-/unpipe-1.0.0.tgz"
    },
    "unzip2": {
      "version": "0.2.5",
      "from": "unzip2@>=0.2.5 <0.3.0",
      "resolved": "https://registry.npmjs.org/unzip2/-/unzip2-0.2.5.tgz"
    },
    "url-parse": {
      "version": "1.1.8",
      "from": "url-parse@>=1.1.1 <2.0.0",
      "resolved": "https://registry.npmjs.org/url-parse/-/url-parse-1.1.8.tgz"
    },
    "util-deprecate": {
      "version": "1.0.2",
      "from": "util-deprecate@>=1.0.1 <1.1.0",
      "resolved": "https://registry.npmjs.org/util-deprecate/-/util-deprecate-1.0.2.tgz"
    },
    "utils-merge": {
      "version": "1.0.0",
      "from": "utils-merge@1.0.0",
      "resolved": "https://registry.npmjs.org/utils-merge/-/utils-merge-1.0.0.tgz"
    },
    "uuid": {
      "version": "3.0.1",
      "from": "uuid@>=3.0.0 <4.0.0",
      "resolved": "https://registry.npmjs.org/uuid/-/uuid-3.0.1.tgz"
    },
    "vary": {
      "version": "1.1.1",
      "from": "vary@>=1.1.0 <1.2.0",
      "resolved": "https://registry.npmjs.org/vary/-/vary-1.1.1.tgz"
    },
    "verror": {
      "version": "1.9.0",
      "from": "verror@>=1.9.0 <2.0.0",
      "resolved": "https://registry.npmjs.org/verror/-/verror-1.9.0.tgz"
    },
    "websocket-driver": {
      "version": "0.6.5",
      "from": "websocket-driver@>=0.5.1",
      "resolved": "https://registry.npmjs.org/websocket-driver/-/websocket-driver-0.6.5.tgz"
    },
    "websocket-extensions": {
      "version": "0.1.1",
      "from": "websocket-extensions@>=0.1.1",
      "resolved": "https://registry.npmjs.org/websocket-extensions/-/websocket-extensions-0.1.1.tgz"
    },
    "websocket-stream": {
      "version": "0.5.1",
      "from": "websocket-stream@>=0.5.1 <0.6.0",
      "resolved": "https://registry.npmjs.org/websocket-stream/-/websocket-stream-0.5.1.tgz"
    },
    "wrappy": {
      "version": "1.0.2",
      "from": "wrappy@>=1.0.0 <2.0.0",
      "resolved": "https://registry.npmjs.org/wrappy/-/wrappy-1.0.2.tgz"
    },
    "ws": {
      "version": "0.4.32",
      "from": "ws@>=0.4.31 <0.5.0",
      "resolved": "https://registry.npmjs.org/ws/-/ws-0.4.32.tgz",
      "dependencies": {
        "nan": {
          "version": "1.0.0",
          "from": "nan@>=1.0.0 <1.1.0",
          "resolved": "https://registry.npmjs.org/nan/-/nan-1.0.0.tgz"
        }
      }
    },
    "wtf-8": {
      "version": "1.0.0",
      "from": "wtf-8@1.0.0",
      "resolved": "https://registry.npmjs.org/wtf-8/-/wtf-8-1.0.0.tgz"
    },
    "xmlhttprequest-ssl": {
      "version": "1.5.3",
      "from": "xmlhttprequest-ssl@1.5.3",
      "resolved": "https://registry.npmjs.org/xmlhttprequest-ssl/-/xmlhttprequest-ssl-1.5.3.tgz"
    },
    "xtend": {
      "version": "4.0.1",
      "from": "xtend@>=4.0.1 <5.0.0",
      "resolved": "https://registry.npmjs.org/xtend/-/xtend-4.0.1.tgz"
    },
    "yallist": {
      "version": "2.1.2",
      "from": "yallist@>=2.0.0 <3.0.0",
      "resolved": "https://registry.npmjs.org/yallist/-/yallist-2.1.2.tgz"
    },
    "yeast": {
      "version": "0.1.2",
      "from": "yeast@0.1.2",
      "resolved": "https://registry.npmjs.org/yeast/-/yeast-0.1.2.tgz"
    },
    "zip-stream": {
      "version": "0.5.2",
      "from": "zip-stream@>=0.5.0 <0.6.0",
      "resolved": "https://registry.npmjs.org/zip-stream/-/zip-stream-0.5.2.tgz",
      "dependencies": {
        "lodash": {
          "version": "3.2.0",
          "from": "lodash@>=3.2.0 <3.3.0",
          "resolved": "https://registry.npmjs.org/lodash/-/lodash-3.2.0.tgz"
        }
      }
    }
  }
}
